Prediction visualisations
…
## # A tibble: 4 x 6
##   species env_rel_imp anthro_rel_imp biotic_rel_imp env_bio_rel_imp
##   <chr>         <dbl>          <dbl>          <dbl>           <dbl>
## 1 Diplod~       0.818          0             0.0653          0.0714
## 2 Diplod~       0.102          0.341         0.182           0.0110
## 3 Diplod~       0.499          0             0.210           0.0399
## 4 Diplod~       0.364          0             0.204           0.0551
## # ... with 1 more variable: mpa_bio_rel_imp <dbl>

# And coefficients
dip_coefs

## # A tibble: 24 x 4
##    species            coefficient_type   value direction
##    <chr>              <chr>              <dbl> <chr>    
##  1 Diplodus.annularis bio              -0.0315 neg      
##  2 Diplodus.annularis bio               0.0521 pos      
##  3 Diplodus.puntazzo  bio               0.141  pos      
##  4 Diplodus.sargus    bio               0.349  pos      
##  5 Diplodus.vulgaris  bio               0.244  pos      
##  6 Diplodus.annularis bio_env           0.0636 pos      
##  7 Diplodus.puntazzo  bio_env          -0.0272 neg      
##  8 Diplodus.sargus    bio_env           0.116  pos      
##  9 Diplodus.vulgaris  bio_env           0.173  pos      
## 10 Diplodus.annularis bio_mpa           0.0459 pos      
## # ... with 14 more rows
…
